{
  "$schema": "node_modules/lerna/schemas/lerna-schema.json",
  "useWorkspaces": true,
  "packages": ["packages/*"],
  "npmClient": "npm",
  "version": "independent",
  "command": {
    "publish": {
      "ignorechanges": ["ignored-file", "*.md"]
    }
  }
}
